kd\productrepository\jparepo\ProductCategorySpecificationAttributeRepository.class
kd\CSVFileUtil.class
kd\productrepository\exception\InvalidInputException.class
kd\InitializationAction.class
kd\productrepository\exception\ProductPropertyAssignmentException.class
kd\productrepository\jparepo\ProductCategorySpecificationRepository.class
kd\InputLineParser.class
kd\productrepository\entity\Product.class
kd\productrepository\jparepo\LookupTypeValueRepository.class
kd\productrepository\entity\productcategory\ProductCategoryAdvice.class
kd\productrepository\entity\lookup\LookupType.class
kd\productrepository\jparepo\LookupTypeRepository.class
kd\productrepository\jparepo\ProductRepository.class
kd\productrepository\entity\productcategory\ProductCategoryProperty.class
kd\productrepository\exception\CategoryPropertyAssignmentException.class
kd\productrepository\service\ProductCategoryService.class
kd\productrepository\entity\productcategory\specification\ProductCategorySpecification.class
kd\productrepository\entity\productcategory\specification\ProductCategorySpecificationAttribute.class
kd\Application.class
kd\productrepository\jparepo\ProductCategoryRepository.class
kd\productrepository\entity\lookup\LookupTypeValue.class
kd\productrepository\entity\ProductAdvice.class
kd\productrepository\entity\ProductStock.class
kd\productrepository\service\ProductService.class
kd\productrepository\entity\productcategory\ProductCategory.class
