E:\sts-bundle\workspace-sts-3.9.1.RELEASE\simple-product-repository\src\main\java\kd\productrepository\entity\productcategory\ProductCategoryAdvice.java
E:\sts-bundle\workspace-sts-3.9.1.RELEASE\simple-product-repository\src\main\java\kd\productrepository\entity\ProductAdvice.java
E:\sts-bundle\workspace-sts-3.9.1.RELEASE\simple-product-repository\src\main\java\kd\productrepository\jparepo\ProductCategorySpecificationAttributeRepository.java
E:\sts-bundle\workspace-sts-3.9.1.RELEASE\simple-product-repository\src\main\java\kd\CSVFileUtil.java
E:\sts-bundle\workspace-sts-3.9.1.RELEASE\simple-product-repository\src\main\java\kd\productrepository\jparepo\ProductRepository.java
E:\sts-bundle\workspace-sts-3.9.1.RELEASE\simple-product-repository\src\main\java\kd\productrepository\jparepo\ProductCategoryRepository.java
E:\sts-bundle\workspace-sts-3.9.1.RELEASE\simple-product-repository\src\main\java\kd\productrepository\entity\lookup\LookupType.java
E:\sts-bundle\workspace-sts-3.9.1.RELEASE\simple-product-repository\src\main\java\kd\productrepository\entity\productcategory\specification\ProductCategorySpecification.java
E:\sts-bundle\workspace-sts-3.9.1.RELEASE\simple-product-repository\src\main\java\kd\productrepository\exception\ProductPropertyAssignmentException.java
E:\sts-bundle\workspace-sts-3.9.1.RELEASE\simple-product-repository\src\main\java\kd\productrepository\exception\CategoryPropertyAssignmentException.java
E:\sts-bundle\workspace-sts-3.9.1.RELEASE\simple-product-repository\src\main\java\kd\productrepository\exception\InvalidInputException.java
E:\sts-bundle\workspace-sts-3.9.1.RELEASE\simple-product-repository\src\main\java\kd\productrepository\jparepo\LookupTypeValueRepository.java
E:\sts-bundle\workspace-sts-3.9.1.RELEASE\simple-product-repository\src\main\java\kd\InputLineParser.java
E:\sts-bundle\workspace-sts-3.9.1.RELEASE\simple-product-repository\src\main\java\kd\productrepository\jparepo\LookupTypeRepository.java
E:\sts-bundle\workspace-sts-3.9.1.RELEASE\simple-product-repository\src\main\java\kd\productrepository\service\ProductService.java
E:\sts-bundle\workspace-sts-3.9.1.RELEASE\simple-product-repository\src\main\java\kd\productrepository\entity\lookup\LookupTypeValue.java
E:\sts-bundle\workspace-sts-3.9.1.RELEASE\simple-product-repository\src\main\java\kd\productrepository\entity\productcategory\ProductCategory.java
E:\sts-bundle\workspace-sts-3.9.1.RELEASE\simple-product-repository\src\main\java\kd\productrepository\entity\ProductStock.java
E:\sts-bundle\workspace-sts-3.9.1.RELEASE\simple-product-repository\src\main\java\kd\productrepository\entity\Product.java
E:\sts-bundle\workspace-sts-3.9.1.RELEASE\simple-product-repository\src\main\java\kd\productrepository\jparepo\ProductCategorySpecificationRepository.java
E:\sts-bundle\workspace-sts-3.9.1.RELEASE\simple-product-repository\src\main\java\kd\productrepository\entity\productcategory\specification\ProductCategorySpecificationAttribute.java
E:\sts-bundle\workspace-sts-3.9.1.RELEASE\simple-product-repository\src\main\java\kd\productrepository\service\ProductCategoryService.java
E:\sts-bundle\workspace-sts-3.9.1.RELEASE\simple-product-repository\src\main\java\kd\Application.java
E:\sts-bundle\workspace-sts-3.9.1.RELEASE\simple-product-repository\src\main\java\kd\productrepository\entity\productcategory\ProductCategoryProperty.java
E:\sts-bundle\workspace-sts-3.9.1.RELEASE\simple-product-repository\src\main\java\kd\InitializationAction.java
